v 20130925 2
C 44900 46200 1 0 0 DS1821.sym
{
T 45000 48200 5 10 0 0 0 0 1
device=DS1821
T 45000 48400 5 10 0 0 0 0 1
footprint=SOT23
T 46400 47700 5 10 0 1 0 6 1
refdes=U?
}
C 46700 47000 1 0 0 resistor-1.sym
{
T 47000 47400 5 10 0 0 0 0 1
device=RESISTOR
T 46900 47300 5 10 0 1 0 0 1
refdes=R?
T 47000 47300 5 10 1 1 0 0 1
value=4K7
}
C 45500 45900 1 0 0 gnd-1.sym
C 47500 48100 1 0 0 vdd-1.sym
C 46800 46200 1 0 0 io-1.sym
{
T 47700 46400 5 10 0 0 0 0 1
net=IO:1
T 47000 46800 5 10 0 0 0 0 1
device=none
T 47100 46300 5 10 1 1 0 1 1
value=Pin 7
}
N 45600 47900 45600 48100 4
N 45600 48100 47700 48100 4
N 47700 48100 47700 47100 4
N 47700 47100 47600 47100 4
N 46700 47100 46700 46300 4
N 46700 46300 46800 46300 4
