%!PS-Adobe-3.0 EPSF-3.0
%%Creator: gEDA gschem 1.8.1-20121123-13-g875406c
%%CreationDate: Sat Oct  3 13:52:48 2015
%%Title: /home/jjmcd/Projects/Amateur_Radio/Schematics/MHSblink/MHSblink.sch
%%Author: jjmcd
%%BoundingBox: 0 0 632 493
%%Orientation: Portrait
%%Pages: 1
%%EndComments
%%BeginProlog
% Prolog for gEDA, define all the functions needed for rendering
% schematics on Postscript devices


% Draw a line from the second coordinate to the first
% x2 y2 x1 y1 width line -
/line {
    setlinewidth
    % pop off first element and moveto
    moveto
    % pop off remaining elements and draw a line segment
    lineto
    % draw it
    stroke
} bind def


% Draw a dot
% x y r dot -
/dot {
    0 360 arc fill
} bind def

% Draw a dot-dashed line, a bunch of lined segments,
% if the array element only has length two, draw a dot.
% [ [x2 y2 x1 y1] [x4 y4 x3 y3] [x5 y5] ... ] width dashed -
/width 0 def
/dashed {
    dup 2.0 div /width exch def
    setlinewidth
    % pop off each line segment and draw it as a dot or as a line
    {
	aload length 2 gt
	{ moveto lineto stroke}
	{ width dot } ifelse
    } forall
} bind def

% Draw an arc segment
% x y r ang1 ang2 width darc -
/darc {
    setlinewidth
    arc stroke
} bind def

% Draw a series of arc segment bits, if the array element only has a single
% element in it, draw a dot.
% [ [sa1 ea1] [sa2 ea2] ... ] x y r width dashedarc -
/x 0 def
/y 0 def
/dashedarc {
    dup /width exch def
    setlinewidth
    /r exch def  
    /y exch def
    /x exch def
    { aload length 1 gt
	{
	    % this element had two angles in it
	    % extract start and stop angles
	    x y r   % drop x y and r onto stack
		    % at this point we have: sa ea x y r
		    % we need                      x y r sa ea
		    % so..
	    5 -2 roll
	    % and add it to the current path, and draw it
	    arc stroke
	} {
	    % this element only had one angle in it, place a
	    % filled dot at the appropriate place
	    % compute center point of the arc using the angle
	    % that is on the top of the stack
	    dup   		% angle angle
	    cos r mul x add 	% angle x
	    exch		% x angle
	    sin r mul y add	% x y
	    width		% x y width/2
	    dot			% draw the dot
	} ifelse
    } forall

    % Now draw it
    stroke
} bind def

% Draw a box
% width height x y linethickness box -
/box {
    setlinewidth
    moveto
    exch dup 0 rlineto	 % w h, h w w 0      -- Draw bottom line
    exch 0 exch rlineto	 % h w, w h 0, w 0 h -- Draw right line 
    neg 0 rlineto	 % w, -w 0           -- Draw Top line
    closepath		 % finish and draw it
    stroke
} bind def			     

% Draw a filled box
% width height x y fbox -
/fbox {
    moveto
    exch dup 0 rlineto	
    exch 0 exch rlineto	
    neg 0 rlineto		
    closepath			
    fill			
} bind def

% Font reincoding utilities

% ISOLatin1Encoding, extended with remaining uncoded glyphs
/ISOLatin1Extended [
    /.notdef /Lslash /lslash /OE /oe /Scaron /scaron /Zcaron /zcaron
    /Ydieresis /trademark /bullet /dagger /daggerdbl /ellipsis /emdash
    /endash /fi /fl /florin /fraction /guilsinglleft /guilsinglright
    /perthousand /quotedblbase /quotedblleft /quotedblright
    /quotesinglbase /quotesingle /.notdef /.notdef /.notdef /space
    /exclam /quotedbl /numbersign /dollar /percent /ampersand
    /quoteright /parenleft /parenright /asterisk /plus /comma /minus
    /period /slash /zero /one /two /three /four /five /six /seven /eight
    /nine /colon /semicolon /less /equal /greater /question /at /A /B /C
    /D /E /F /G /H /I /J /K /L /M /N /O /P /Q /R /S /T /U /V /W /X /Y /Z
    /bracketleft /backslash /bracketright /asciicircum /underscore
    /quoteleft /a /b /c /d /e /f /g /h /i /j /k /l /m /n /o /p /q /r /s
    /t /u /v /w /x /y /z /braceleft /bar /braceright /asciitilde
    /.notdef /.notdef /.notdef /.notdef /.notdef /.notdef /.notdef
    /.notdef /.notdef /.notdef /.notdef /.notdef /.notdef /.notdef
    /.notdef /.notdef /.notdef /dotlessi /grave /acute /circumflex
    /tilde /macron /breve /dotaccent /dieresis /.notdef /ring /cedilla
    /.notdef /hungarumlaut /ogonek /caron /space /exclamdown /cent
    /sterling /currency /yen /brokenbar /section /dieresis /copyright
    /ordfeminine /guillemotleft /logicalnot /hyphen /registered /macron
    /degree /plusminus /twosuperior /threesuperior /acute /mu /paragraph
    /periodcentered /cedilla /onesuperior /ordmasculine /guillemotright
    /onequarter /onehalf /threequarters /questiondown /Agrave /Aacute
    /Acircumflex /Atilde /Adieresis /Aring /AE /Ccedilla /Egrave /Eacute
    /Ecircumflex /Edieresis /Igrave /Iacute /Icircumflex /Idieresis /Eth
    /Ntilde /Ograve /Oacute /Ocircumflex /Otilde /Odieresis /multiply
    /Oslash /Ugrave /Uacute /Ucircumflex /Udieresis /Yacute /Thorn
    /germandbls /agrave /aacute /acircumflex /atilde /adieresis /aring
    /ae /ccedilla /egrave /eacute /ecircumflex /edieresis /igrave
    /iacute /icircumflex /idieresis /eth /ntilde /ograve /oacute
    /ocircumflex /otilde /odieresis /divide /oslash /ugrave /uacute
    /ucircumflex /udieresis /yacute /thorn /ydieresis
] def

% `new-font-name' `encoding-vector' `old-font-name' RE -
/RE {
    findfont
    dup maxlength dict begin {
        1 index /FID ne { def } { pop pop } ifelse
    } forall
    /Encoding exch def
    dup /FontName exch def
    currentdict end definefont pop
} bind def

% Text handling functions, select the font and scale it, then we need
% only to apply the appropriate transformations to get the text
% justified into the right spots.  The bad thing here is that we don't
% do any kerning, so the output may look a bit strange.

% compute the height of one character and return lly and ury
% (char) charheight lly ury
/charheight {
    gsave			% push graphics state
	newpath			% clear current path
	0 0 moveto		% Set current point
	false charpath		% get path
	flattenpath		% flatten path
	pathbbox		% stack = llx lly urx ury
	exch pop		% stack = llx lly ury
	3 -1 roll pop		% stack = lly ury
    grestore			% pop graphics state
} bind def

% compute the height of a string, one character at a time
% (string) stringheight lly ury
/lly 0.0 def
/ury 0.0 def

/stringheight {
    /lly 0.0 def			% initial value of heightmin
    /ury 0.0 def			% initial value of heightmax
    {				% work through string
	( ) dup 0 4 -1 roll put	% create one character string
	charheight		% measure it's height
	dup ury gt {		% if ury gt heightmax
	    /ury exch def	% update with new value
	} {
	    pop			% else discard ury
	} ifelse
	dup lly lt {		% if lly lt heightmin
	    /lly exch def	% update with new value
	} {
	    pop			% else discard lly
	} ifelse
    } forall
    lly ury			% Return the results
} bind def

% calculate the string width taking into account the escapes.
/mystrx 0.0 def
/mystry 0.0 def
/mystresc false def

/mystringwidth {
    /mystrx 0.0 def
    /mystry 0.0 def
    /mystresc false def
    {				% work through string
	% did we process the escape character last?
	mystresc {
	    % last character was escape
	    % handle the escape
	    % is it an _ = 95?
	    dup 95 eq {
		pop  % we don't need the character anymore
		% toggle drawing overbars
		0.0 0.0 % make it like it never happened...
	    } {
		% otherwise measure the character 
		(\\ ) dup 1 4 -1 roll put % count a \ and the character
		stringwidth
	    } ifelse
	    % and reset the flag
	    /mystresc false def
	} {
	    % last character was not escape
	    % is this escape
	    dup 92 eq {
		% yes, escape character, set flag
		/mystresc true def
		pop % drop character
		0.0 0.0 % make like this character has no width and height
	    } {
		( ) dup 0 4 -1 roll put	% create one character string
		stringwidth		% measure it's height/width
	    } ifelse
	} ifelse
	% accumulate x and y movements
	mystry add /mystry exch def
	mystrx add /mystrx exch def
    } forall
    mystrx mystry % drop results on stack
} bind def

% Render a string with overbars
%
/escaped false def
/drawoverbar false def
/fontsize 0.0 def

%string1 string2 append -
/append {
    2 copy length exch length add % find new length
    string dup % string1 string2 string string
    4 2 roll % string string string1 string2
    2 index 0 3 index
    % string string string1 string2 string 0 string1
    putinterval % string string string1 string2
    exch length exch putinterval
} bind def

% If drawoverbar is set, draw a line of the same length as the given string
% string overbarshowline -
/overbarshowline {
    % print overbar if necessary
    stringwidth pop 0
    drawoverbar {
        rlineto
        gsave stroke grestore
    } {
        rmoveto
    } ifelse
} bind def

% Draws overbars for the given string, then shows the string itself
% string overbarshow
/overbarshow {
    /overbarshowacc () def
    /overbarshowtxt () def

    gsave
    fontsize 10.0 div setlinewidth
    0 fontsize rmoveto  % move to (0,overbarheight)

    {				% work through string
	escaped {
	    % the last character was the escape
	    % handle the escape
	    % is it an _ = 95?
	    dup 95 eq {
		pop  % we don't need the character anymore
                overbarshowacc overbarshowline
                % toggle drawing overbars
		/drawoverbar drawoverbar not def

                % Append the contents off the accumulator to the text
                % string we're eventually going to show
                /overbarshowtxt overbarshowtxt overbarshowacc append def

                % clear accumulator
                /overbarshowacc () def
	    } {
                % add to accumulator
                (\\ ) dup 1 4 -1 roll put
                overbarshowacc exch append
                /overbarshowacc exch def
	    } ifelse
	    % and reset the flag
	    /escaped false def
	} {
	    % check for escape character \ = 92
	    dup 92 eq {
		% yes, escape character, set flag
		/escaped true def
		pop % drop character
	    } {
                % add to accumulator
                ( ) dup 0 4 -1 roll put
                overbarshowacc exch append
                /overbarshowacc exch def
	    } ifelse
	} ifelse
    } forall
    % Catch any leftovers
    overbarshowacc overbarshowline
    overbarshowtxt overbarshowacc append

    grestore
    show
} bind def

% 
% hcenter rjustify vcenter vjustify spacing [(line1) (line2) ... ] rot x y size text -
/stringw 0.0 def
/stringh 0.0 def
/spacing 0.0 def
/strings [ ] def
/stringtxt ( ) def
/stringcount 0 def
/rot 0.0 def

/text {
    gsave	        % save state for later
    /drawoverbar false def      % start by not drawing overbars

    dup /fontsize exch def  % save font size for corrections later
    % do font selection 
    /gEDAFont findfont
    exch scalefont
    setfont

    % set up coordinates
    translate           % move origin to given point
    rotate		% rotate so that text is drawn
    0 0 moveto
    dup length /stringcount exch def			% Get number of strings
    /strings exch def     				% save strings
    /spacing exch def
    % do we have more than 1 string to render?
    stringcount 1 eq {
	/stringtxt strings aload pop def		% get the string 
	/stringw stringtxt mystringwidth pop neg def	% get the -width
	/stringh stringtxt stringheight exch pop neg def% get the -height

	% First do vertical calculations
	% hcenter rjustify vcenter vjustify 
	% vertical justification
	{ 0 stringh rmoveto } if 
	% vertical center
	{ 0 stringh 0.3571425 mul rmoveto } if  % not 0.5, so that
						% it looks nicer
	% Then do horizontal calculations
	% right justify
	{ stringw 0 rmoveto } if
	% center
	{ stringw 2.0 div 0 rmoveto } if
	% Draw the text
	stringtxt overbarshow
    } {
	% More than one line, compute bounding box for the text

	% vertical height, don't use the actual hieght of the characters
	% assume that the user wants to make the baselines line up with two
	% text boxes placed side by side
	/stringh stringcount spacing mul neg def
	% Now figure out horizontal size, this amounts to keeping track
	% of the longest string
	/stringw 0.0 def
	strings {
	    mystringwidth pop
	    dup stringw gt {
		/stringw exch def
	    } {
		pop
	    } ifelse
	} forall
	/stringw stringw neg def 	% get the -width
	
	% First do vertical calculations
	% hcenter rjustify vcenter vjustify 
	% vertical justification
	{ 0 stringh fontsize add rmoveto } if 
	% vertical center
	{ 0 stringh 0.5 mul rmoveto } if 
	% Then do horizontal calculations
	% right justify
	{ stringw 0 rmoveto } if
	% center
	{ stringw 2.0 div 0 rmoveto } if
	% now move up to the first line and begin rendering
	0 stringcount 1 sub spacing mul rmoveto
	strings {
	    gsave		% Save starting point
	    overbarshow		% render the text
	    grestore
	    0 spacing neg rmoveto
	} forall
    } ifelse
    grestore 	% Restore old state
} bind def


%%EndProlog
%%Page: 1 1
/gEDAFont ISOLatin1Extended /Helvetica RE
2 setlinecap
0.072000 0.072000 scale
0 0 translate
1.000000 1.000000 scale
-55315 -74610 translate
gsave
63100 76000 63300 76000 10 line
gsave
false true false false 161.777776 [(1) ] 0 63250 76050 144.444443 text
grestore
64000 76000 63800 76000 10 line
gsave
false false false false 161.777776 [(2) ] 0 63850 76050 144.444443 text
grestore
63500 76100 63600 76000 10 line
63600 76000 63500 75900 10 line
63500 76100 63500 75900 10 line
63600 76100 63600 75900 10 line
63600 76000 63800 76000 10 line
63500 76000 63300 76000 10 line
63550 76000 200 0 360 10 darc
63616 76303 63717 76404 10 line
63717 76404 63721 76355 10 line
63721 76355 63822 76457 10 line
63584 76218 63685 76318 10 line
63685 76318 63689 76269 10 line
63689 76269 63790 76370 10 line
newpath
64000 76000
25
0 360 arc
fill
newpath
64000 76000
25
0 360 arc
fill
grestore
gsave
false false false false 202.222224 [(LED1) ] 0 63000 76200 180.555557 text
grestore
gsave
62600 76100 62500 75900 10 line
62500 75900 62400 76100 10 line
62400 76100 62300 75900 10 line
62300 75900 62200 76100 10 line
62600 76100 62700 75900 10 line
62700 75900 62750 76000 10 line
62900 76000 62750 76000 10 line
62000 76000 62152 76000 10 line
62201 76100 62150 76000 10 line
grestore
gsave
false false false false 202.222224 [(R2) ] 0 62200 76200 180.555557 text
grestore
gsave
false false false false 202.222224 [(412) ] 0 62600 75700 180.555557 text
grestore
gsave
57600 80500 57800 80400 10 line
57800 80400 57600 80300 10 line
57600 80300 57800 80200 10 line
57800 80200 57600 80100 10 line
57600 80500 57800 80600 10 line
57800 80600 57700 80650 10 line
57700 80800 57700 80650 10 line
57700 79900 57700 80052 10 line
57600 80101 57700 80050 10 line
newpath
57700 80800
25
0 360 arc
fill
newpath
57700 80800
25
0 360 arc
fill
grestore
gsave
false true false true 202.222224 [(R1) ] 0 57500 80300 180.555557 text
grestore
gsave
false false false false 202.222224 [(47K) ] 0 57800 79900 180.555557 text
grestore
gsave
62000 77600 62200 77600 10 line
gsave
false true false false 161.777776 [(1) ] 0 62150 77650 144.444443 text
grestore
62900 77600 62700 77600 10 line
gsave
false false false false 161.777776 [(2) ] 0 62750 77650 144.444443 text
grestore
62400 77800 62400 77400 10 line
62700 77600 62500 77600 10 line
62400 77600 62200 77600 10 line
63200 77600 700 165 195 10 darc
62289 77800 62289 77700 10 line
62340 77749 62240 77749 10 line
grestore
gsave
false false false false 202.222224 [(C1) ] 0 62200 77900 180.555557 text
grestore
gsave
false false false false 202.222224 [(10u) ] 0 62600 77300 180.555557 text
grestore
gsave
56600 79500 56400 79500 10 line
gsave
false true false false 161.777776 [(1) ] 0 56250 79500 144.444443 text
grestore
56350 79500 50 0 360 10 darc
56600 79100 56400 79100 10 line
gsave
false true false false 161.777776 [(2) ] 0 56250 79100 144.444443 text
grestore
56350 79100 50 0 360 10 darc
56600 78700 56400 78700 10 line
gsave
false true false false 161.777776 [(3) ] 0 56250 78700 144.444443 text
grestore
56350 78700 50 0 360 10 darc
56600 78300 56400 78300 10 line
gsave
false true false false 161.777776 [(4) ] 0 56250 78300 144.444443 text
grestore
56350 78300 50 0 360 10 darc
56600 77900 56400 77900 10 line
gsave
false true false false 161.777776 [(5) ] 0 56250 77900 144.444443 text
grestore
56350 77900 50 0 360 10 darc
56600 77500 56400 77500 10 line
gsave
false true false false 161.777776 [(6) ] 0 56250 77500 144.444443 text
grestore
56350 77500 50 0 360 10 darc
55900 77100 56300 77100 10 line
56300 77100 56300 79900 10 line
56300 79900 55900 79900 10 line
55900 79900 55900 77100 10 line
60 60 56570 77470 fbox
grestore
gsave
false false false false 202.222224 [(J1) ] 0 55900 80000 180.555557 text
grestore
gsave
59200 75200 61700 75200 10 line
61700 75200 61700 81200 10 line
61700 81200 59200 81200 10 line
59200 81200 59200 75200 10 line
59100 80800 58900 80800 10 line
gsave
false true false false 161.777776 [(1) ] 0 59100 80850 144.444443 text
grestore
gsave
false false false false 161.777776 [(MCLR) ] 0 59250 80800 144.444443 text
grestore
59200 80400 58900 80400 10 line
gsave
false true false false 161.777776 [(2) ] 0 59100 80450 144.444443 text
grestore
gsave
false false false false 161.777776 [(RA0/AN0) ] 0 59250 80400 144.444443 text
grestore
59200 80000 58900 80000 10 line
gsave
false true false false 161.777776 [(3) ] 0 59100 80050 144.444443 text
grestore
gsave
false false false false 161.777776 [(RA1/AN1) ] 0 59250 80000 144.444443 text
grestore
59104 79599 58900 79599 10 line
gsave
false true false false 161.777776 [(4) ] 0 59100 79649 144.444443 text
grestore
gsave
false false false false 161.777776 [(RB0/AN2/U2TX/PGD) ] 0 59250 79599 144.444443 text
grestore
59100 79200 58900 79200 10 line
gsave
false true false false 161.777776 [(5) ] 0 59100 79250 144.444443 text
grestore
gsave
false false false false 161.777776 [(RB1/AN3/U2RX/PGC) ] 0 59250 79200 144.444443 text
grestore
59200 78800 58900 78800 10 line
gsave
false true false false 161.777776 [(6) ] 0 59100 78850 144.444443 text
grestore
gsave
false false false false 161.777776 [(RB2/AN4/U1RX) ] 0 59250 78800 144.444443 text
grestore
59200 78400 58900 78400 10 line
gsave
false true false false 161.777776 [(7) ] 0 59100 78450 144.444443 text
grestore
gsave
false false false false 161.777776 [(RB3/AN5/RPB3) ] 0 59250 78400 144.444443 text
grestore
59200 78000 58900 78000 10 line
gsave
false true false false 161.777776 [(8) ] 0 59100 78050 144.444443 text
grestore
gsave
false false false false 161.777776 [(Vss) ] 0 59250 78000 144.444443 text
grestore
59200 77600 58900 77600 10 line
gsave
false true false false 161.777776 [(9) ] 0 59100 77650 144.444443 text
grestore
gsave
false false false false 161.777776 [(OSC1/CLKI/RA2) ] 0 59250 77600 144.444443 text
grestore
59200 77200 58900 77200 10 line
gsave
false true false false 161.777776 [(10) ] 0 59100 77250 144.444443 text
grestore
gsave
false false false false 161.777776 [(OSC2/CLKO/RA3) ] 0 59250 77200 144.444443 text
grestore
59200 76800 58900 76800 10 line
gsave
false true false false 161.777776 [(11) ] 0 59100 76850 144.444443 text
grestore
gsave
false false false false 161.777776 [(RB4/AN15) ] 0 59250 76800 144.444443 text
grestore
59200 76400 58900 76400 10 line
gsave
false true false false 161.777776 [(12) ] 0 59100 76450 144.444443 text
grestore
gsave
false false false false 161.777776 [(RA4/AN16) ] 0 59250 76400 144.444443 text
grestore
59200 76000 58900 76000 10 line
gsave
false true false false 161.777776 [(13) ] 0 59100 76050 144.444443 text
grestore
gsave
false false false false 161.777776 [(Vdd) ] 0 59250 76000 144.444443 text
grestore
59200 75600 58900 75600 10 line
gsave
false true false false 161.777776 [(14) ] 0 59100 75650 144.444443 text
grestore
gsave
false false false false 161.777776 [(RB5/AN17) ] 0 59250 75600 144.444443 text
grestore
61700 75600 62000 75600 10 line
gsave
false false false false 161.777776 [(15) ] 0 61795 75645 144.444443 text
grestore
gsave
false true false false 161.777776 [(RB6/AN18) ] 0 61645 75595 144.444443 text
grestore
61700 76000 62000 76000 10 line
gsave
false false false false 161.777776 [(16) ] 0 61795 76045 144.444443 text
grestore
gsave
false true false false 161.777776 [(RB7/AN19/U1TX) ] 0 61645 75995 144.444443 text
grestore
62000 76400 61700 76400 10 line
gsave
false false false false 161.777776 [(17) ] 0 61800 76450 144.444443 text
grestore
gsave
false true false false 161.777776 [(RB8/AN20) ] 0 61650 76400 144.444443 text
grestore
62000 76800 61700 76800 10 line
gsave
false false false false 161.777776 [(18) ] 0 61800 76850 144.444443 text
grestore
gsave
false true false false 161.777776 [(RB9/AN21) ] 0 61650 76800 144.444443 text
grestore
62000 77200 61700 77200 10 line
gsave
false false false false 161.777776 [(19) ] 0 61800 77250 144.444443 text
grestore
gsave
false true false false 161.777776 [(RA7) ] 0 61650 77200 144.444443 text
grestore
62000 77600 61700 77600 10 line
gsave
false false false false 161.777776 [(20) ] 0 61800 77650 144.444443 text
grestore
gsave
false true false false 161.777776 [(Vcap) ] 0 61650 77600 144.444443 text
grestore
62000 78000 61700 78000 10 line
gsave
false false false false 161.777776 [(21) ] 0 61800 78050 144.444443 text
grestore
gsave
false true false false 161.777776 [(RB10) ] 0 61650 78000 144.444443 text
grestore
62000 78400 61700 78400 10 line
gsave
false false false false 161.777776 [(22) ] 0 61800 78450 144.444443 text
grestore
gsave
false true false false 161.777776 [(RB11) ] 0 61650 78400 144.444443 text
grestore
62000 78800 61700 78800 10 line
gsave
false false false false 161.777776 [(23) ] 0 61800 78850 144.444443 text
grestore
gsave
false true false false 161.777776 [(RB12/AN12) ] 0 61650 78800 144.444443 text
grestore
62000 79200 61700 79200 10 line
gsave
false false false false 161.777776 [(24) ] 0 61800 79250 144.444443 text
grestore
gsave
false true false false 161.777776 [(RB13/AN11) ] 0 61650 79200 144.444443 text
grestore
62000 79600 61700 79600 10 line
gsave
false false false false 161.777776 [(25) ] 0 61800 79650 144.444443 text
grestore
gsave
false true false false 161.777776 [(RB14/AN10) ] 0 61650 79600 144.444443 text
grestore
62000 80000 61700 80000 10 line
gsave
false false false false 161.777776 [(26) ] 0 61800 80050 144.444443 text
grestore
gsave
false true false false 161.777776 [(RB15/AN9) ] 0 61650 80000 144.444443 text
grestore
62000 80400 61700 80400 10 line
gsave
false false false false 161.777776 [(27) ] 0 61800 80450 144.444443 text
grestore
gsave
false true false false 161.777776 [(AVss) ] 0 61650 80400 144.444443 text
grestore
62000 80800 61700 80800 10 line
gsave
false false false false 161.777776 [(28) ] 0 61800 80850 144.444443 text
grestore
gsave
false true false false 161.777776 [(AVdd) ] 0 61650 80800 144.444443 text
grestore
59260 80961 59660 80961 10 line
gsave
false false false false 202.222224 [(PIC24FV16KM202) ] 0 59200 81250 180.555557 text
grestore
59150 80800 50 0 360 10 darc
59103 79552 59199 79552 10 line
59199 79552 59199 79646 10 line
59199 79646 59103 79646 10 line
59103 79646 59103 79552 10 line
59101 79146 59200 79146 10 line
59200 79146 59200 79252 10 line
59200 79252 59101 79252 10 line
59101 79252 59101 79146 10 line
60 60 58870 80370 fbox
60 60 58870 79970 fbox
60 60 58870 78770 fbox
60 60 58870 78370 fbox
60 60 58870 77570 fbox
60 60 58870 77170 fbox
60 60 58870 76770 fbox
60 60 58870 76370 fbox
60 60 58870 75570 fbox
60 60 61970 75570 fbox
60 60 61970 76370 fbox
60 60 61970 76770 fbox
60 60 61970 77170 fbox
60 60 61970 77970 fbox
60 60 61970 78370 fbox
60 60 61970 78770 fbox
60 60 61970 79170 fbox
60 60 61970 79570 fbox
60 60 61970 79970 fbox
60 60 61970 80370 fbox
60 60 61970 80770 fbox
grestore
gsave
false false false false 202.222224 [(U1) ] 0 61500 81300 180.555557 text
grestore
58900 80800 56900 80800 10 line
56900 79500 56900 80800 10 line
56900 79500 56600 79500 10 line
58900 76000 57700 76000 10 line
57700 76000 57700 79900 10 line
57700 79100 56600 79100 10 line
58900 78000 56900 78000 10 line
56900 78000 56900 78700 10 line
56900 78700 56600 78700 10 line
63100 76000 62900 76000 10 line
58900 79599 57200 79600 10 line
57200 79600 57200 78300 10 line
58900 79200 58100 79200 10 line
58100 79200 58100 77900 10 line
56600 78300 57200 78300 10 line
58100 77900 56600 77900 10 line
58300 78000 58300 74900 10 line
58300 74900 64000 74900 10 line
64000 74900 64000 77600 10 line
62900 77600 64000 77600 10 line
gsave
false false false false 202.222224 [(MCLR) ] 0 55300 79500 180.555557 text
grestore
gsave
false false false false 202.222224 [(Vdd) ] 0 55500 79100 180.555557 text
grestore
gsave
false false false false 202.222224 [(Vss) ] 0 55500 78700 180.555557 text
grestore
gsave
false false false false 202.222224 [(PGD) ] 0 55400 78300 180.555557 text
grestore
gsave
false false false false 202.222224 [(PGC) ] 0 55400 77900 180.555557 text
grestore
gsave
64000 74700 64000 74900 10 line
63900 74700 64100 74700 10 line
63955 74650 64045 74650 10 line
63980 74610 64020 74610 10 line
newpath
64000 74900
25
0 360 arc
fill
grestore
newpath
64000 76000
25
0 360 arc
fill
newpath
64000 76000
25
0 360 arc
fill
newpath
57700 80800
25
0 360 arc
fill
newpath
57700 80800
25
0 360 arc
fill
60 60 56570 77470 fbox
60 60 58870 80370 fbox
60 60 58870 79970 fbox
60 60 58870 78770 fbox
60 60 58870 78370 fbox
60 60 58870 77570 fbox
60 60 58870 77170 fbox
60 60 58870 76770 fbox
60 60 58870 76370 fbox
60 60 58870 75570 fbox
60 60 61970 75570 fbox
60 60 61970 76370 fbox
60 60 61970 76770 fbox
60 60 61970 77170 fbox
60 60 61970 77970 fbox
60 60 61970 78370 fbox
60 60 61970 78770 fbox
60 60 61970 79170 fbox
60 60 61970 79570 fbox
60 60 61970 79970 fbox
60 60 61970 80370 fbox
60 60 61970 80770 fbox
newpath
57700 80800
25
0 360 arc
fill
newpath
57700 79100
25
0 360 arc
fill
newpath
57700 79100
25
0 360 arc
fill
newpath
57700 79100
25
0 360 arc
fill
newpath
58300 78000
25
0 360 arc
fill
newpath
58300 78000
25
0 360 arc
fill
newpath
58300 78000
25
0 360 arc
fill
newpath
64000 74900
25
0 360 arc
fill
newpath
64000 74900
25
0 360 arc
fill
newpath
64000 76000
25
0 360 arc
fill
newpath
64000 74900
25
0 360 arc
fill
showpage
%%End
