%!PS-Adobe-3.0 EPSF-3.0
%%Creator: gEDA gschem 1.8.1-20121123-13-g875406c
%%CreationDate: Mon Jan  4 19:25:23 2016
%%Title: /home/jjmcd/Projects/Amateur_Radio/Schematics/sample/sample.sch
%%Author: jjmcd
%%BoundingBox: 0 0 461 554
%%Orientation: Portrait
%%Pages: 1
%%EndComments
%%BeginProlog
% Prolog for gEDA, define all the functions needed for rendering
% schematics on Postscript devices


% Draw a line from the second coordinate to the first
% x2 y2 x1 y1 width line -
/line {
    setlinewidth
    % pop off first element and moveto
    moveto
    % pop off remaining elements and draw a line segment
    lineto
    % draw it
    stroke
} bind def


% Draw a dot
% x y r dot -
/dot {
    0 360 arc fill
} bind def

% Draw a dot-dashed line, a bunch of lined segments,
% if the array element only has length two, draw a dot.
% [ [x2 y2 x1 y1] [x4 y4 x3 y3] [x5 y5] ... ] width dashed -
/width 0 def
/dashed {
    dup 2.0 div /width exch def
    setlinewidth
    % pop off each line segment and draw it as a dot or as a line
    {
	aload length 2 gt
	{ moveto lineto stroke}
	{ width dot } ifelse
    } forall
} bind def

% Draw an arc segment
% x y r ang1 ang2 width darc -
/darc {
    setlinewidth
    arc stroke
} bind def

% Draw a series of arc segment bits, if the array element only has a single
% element in it, draw a dot.
% [ [sa1 ea1] [sa2 ea2] ... ] x y r width dashedarc -
/x 0 def
/y 0 def
/dashedarc {
    dup /width exch def
    setlinewidth
    /r exch def  
    /y exch def
    /x exch def
    { aload length 1 gt
	{
	    % this element had two angles in it
	    % extract start and stop angles
	    x y r   % drop x y and r onto stack
		    % at this point we have: sa ea x y r
		    % we need                      x y r sa ea
		    % so..
	    5 -2 roll
	    % and add it to the current path, and draw it
	    arc stroke
	} {
	    % this element only had one angle in it, place a
	    % filled dot at the appropriate place
	    % compute center point of the arc using the angle
	    % that is on the top of the stack
	    dup   		% angle angle
	    cos r mul x add 	% angle x
	    exch		% x angle
	    sin r mul y add	% x y
	    width		% x y width/2
	    dot			% draw the dot
	} ifelse
    } forall

    % Now draw it
    stroke
} bind def

% Draw a box
% width height x y linethickness box -
/box {
    setlinewidth
    moveto
    exch dup 0 rlineto	 % w h, h w w 0      -- Draw bottom line
    exch 0 exch rlineto	 % h w, w h 0, w 0 h -- Draw right line 
    neg 0 rlineto	 % w, -w 0           -- Draw Top line
    closepath		 % finish and draw it
    stroke
} bind def			     

% Draw a filled box
% width height x y fbox -
/fbox {
    moveto
    exch dup 0 rlineto	
    exch 0 exch rlineto	
    neg 0 rlineto		
    closepath			
    fill			
} bind def

% Font reincoding utilities

% ISOLatin1Encoding, extended with remaining uncoded glyphs
/ISOLatin1Extended [
    /.notdef /Lslash /lslash /OE /oe /Scaron /scaron /Zcaron /zcaron
    /Ydieresis /trademark /bullet /dagger /daggerdbl /ellipsis /emdash
    /endash /fi /fl /florin /fraction /guilsinglleft /guilsinglright
    /perthousand /quotedblbase /quotedblleft /quotedblright
    /quotesinglbase /quotesingle /.notdef /.notdef /.notdef /space
    /exclam /quotedbl /numbersign /dollar /percent /ampersand
    /quoteright /parenleft /parenright /asterisk /plus /comma /minus
    /period /slash /zero /one /two /three /four /five /six /seven /eight
    /nine /colon /semicolon /less /equal /greater /question /at /A /B /C
    /D /E /F /G /H /I /J /K /L /M /N /O /P /Q /R /S /T /U /V /W /X /Y /Z
    /bracketleft /backslash /bracketright /asciicircum /underscore
    /quoteleft /a /b /c /d /e /f /g /h /i /j /k /l /m /n /o /p /q /r /s
    /t /u /v /w /x /y /z /braceleft /bar /braceright /asciitilde
    /.notdef /.notdef /.notdef /.notdef /.notdef /.notdef /.notdef
    /.notdef /.notdef /.notdef /.notdef /.notdef /.notdef /.notdef
    /.notdef /.notdef /.notdef /dotlessi /grave /acute /circumflex
    /tilde /macron /breve /dotaccent /dieresis /.notdef /ring /cedilla
    /.notdef /hungarumlaut /ogonek /caron /space /exclamdown /cent
    /sterling /currency /yen /brokenbar /section /dieresis /copyright
    /ordfeminine /guillemotleft /logicalnot /hyphen /registered /macron
    /degree /plusminus /twosuperior /threesuperior /acute /mu /paragraph
    /periodcentered /cedilla /onesuperior /ordmasculine /guillemotright
    /onequarter /onehalf /threequarters /questiondown /Agrave /Aacute
    /Acircumflex /Atilde /Adieresis /Aring /AE /Ccedilla /Egrave /Eacute
    /Ecircumflex /Edieresis /Igrave /Iacute /Icircumflex /Idieresis /Eth
    /Ntilde /Ograve /Oacute /Ocircumflex /Otilde /Odieresis /multiply
    /Oslash /Ugrave /Uacute /Ucircumflex /Udieresis /Yacute /Thorn
    /germandbls /agrave /aacute /acircumflex /atilde /adieresis /aring
    /ae /ccedilla /egrave /eacute /ecircumflex /edieresis /igrave
    /iacute /icircumflex /idieresis /eth /ntilde /ograve /oacute
    /ocircumflex /otilde /odieresis /divide /oslash /ugrave /uacute
    /ucircumflex /udieresis /yacute /thorn /ydieresis
] def

% `new-font-name' `encoding-vector' `old-font-name' RE -
/RE {
    findfont
    dup maxlength dict begin {
        1 index /FID ne { def } { pop pop } ifelse
    } forall
    /Encoding exch def
    dup /FontName exch def
    currentdict end definefont pop
} bind def

% Text handling functions, select the font and scale it, then we need
% only to apply the appropriate transformations to get the text
% justified into the right spots.  The bad thing here is that we don't
% do any kerning, so the output may look a bit strange.

% compute the height of one character and return lly and ury
% (char) charheight lly ury
/charheight {
    gsave			% push graphics state
	newpath			% clear current path
	0 0 moveto		% Set current point
	false charpath		% get path
	flattenpath		% flatten path
	pathbbox		% stack = llx lly urx ury
	exch pop		% stack = llx lly ury
	3 -1 roll pop		% stack = lly ury
    grestore			% pop graphics state
} bind def

% compute the height of a string, one character at a time
% (string) stringheight lly ury
/lly 0.0 def
/ury 0.0 def

/stringheight {
    /lly 0.0 def			% initial value of heightmin
    /ury 0.0 def			% initial value of heightmax
    {				% work through string
	( ) dup 0 4 -1 roll put	% create one character string
	charheight		% measure it's height
	dup ury gt {		% if ury gt heightmax
	    /ury exch def	% update with new value
	} {
	    pop			% else discard ury
	} ifelse
	dup lly lt {		% if lly lt heightmin
	    /lly exch def	% update with new value
	} {
	    pop			% else discard lly
	} ifelse
    } forall
    lly ury			% Return the results
} bind def

% calculate the string width taking into account the escapes.
/mystrx 0.0 def
/mystry 0.0 def
/mystresc false def

/mystringwidth {
    /mystrx 0.0 def
    /mystry 0.0 def
    /mystresc false def
    {				% work through string
	% did we process the escape character last?
	mystresc {
	    % last character was escape
	    % handle the escape
	    % is it an _ = 95?
	    dup 95 eq {
		pop  % we don't need the character anymore
		% toggle drawing overbars
		0.0 0.0 % make it like it never happened...
	    } {
		% otherwise measure the character 
		(\\ ) dup 1 4 -1 roll put % count a \ and the character
		stringwidth
	    } ifelse
	    % and reset the flag
	    /mystresc false def
	} {
	    % last character was not escape
	    % is this escape
	    dup 92 eq {
		% yes, escape character, set flag
		/mystresc true def
		pop % drop character
		0.0 0.0 % make like this character has no width and height
	    } {
		( ) dup 0 4 -1 roll put	% create one character string
		stringwidth		% measure it's height/width
	    } ifelse
	} ifelse
	% accumulate x and y movements
	mystry add /mystry exch def
	mystrx add /mystrx exch def
    } forall
    mystrx mystry % drop results on stack
} bind def

% Render a string with overbars
%
/escaped false def
/drawoverbar false def
/fontsize 0.0 def

%string1 string2 append -
/append {
    2 copy length exch length add % find new length
    string dup % string1 string2 string string
    4 2 roll % string string string1 string2
    2 index 0 3 index
    % string string string1 string2 string 0 string1
    putinterval % string string string1 string2
    exch length exch putinterval
} bind def

% If drawoverbar is set, draw a line of the same length as the given string
% string overbarshowline -
/overbarshowline {
    % print overbar if necessary
    stringwidth pop 0
    drawoverbar {
        rlineto
        gsave stroke grestore
    } {
        rmoveto
    } ifelse
} bind def

% Draws overbars for the given string, then shows the string itself
% string overbarshow
/overbarshow {
    /overbarshowacc () def
    /overbarshowtxt () def

    gsave
    fontsize 10.0 div setlinewidth
    0 fontsize rmoveto  % move to (0,overbarheight)

    {				% work through string
	escaped {
	    % the last character was the escape
	    % handle the escape
	    % is it an _ = 95?
	    dup 95 eq {
		pop  % we don't need the character anymore
                overbarshowacc overbarshowline
                % toggle drawing overbars
		/drawoverbar drawoverbar not def

                % Append the contents off the accumulator to the text
                % string we're eventually going to show
                /overbarshowtxt overbarshowtxt overbarshowacc append def

                % clear accumulator
                /overbarshowacc () def
	    } {
                % add to accumulator
                (\\ ) dup 1 4 -1 roll put
                overbarshowacc exch append
                /overbarshowacc exch def
	    } ifelse
	    % and reset the flag
	    /escaped false def
	} {
	    % check for escape character \ = 92
	    dup 92 eq {
		% yes, escape character, set flag
		/escaped true def
		pop % drop character
	    } {
                % add to accumulator
                ( ) dup 0 4 -1 roll put
                overbarshowacc exch append
                /overbarshowacc exch def
	    } ifelse
	} ifelse
    } forall
    % Catch any leftovers
    overbarshowacc overbarshowline
    overbarshowtxt overbarshowacc append

    grestore
    show
} bind def

% 
% hcenter rjustify vcenter vjustify spacing [(line1) (line2) ... ] rot x y size text -
/stringw 0.0 def
/stringh 0.0 def
/spacing 0.0 def
/strings [ ] def
/stringtxt ( ) def
/stringcount 0 def
/rot 0.0 def

/text {
    gsave	        % save state for later
    /drawoverbar false def      % start by not drawing overbars

    dup /fontsize exch def  % save font size for corrections later
    % do font selection 
    /gEDAFont findfont
    exch scalefont
    setfont

    % set up coordinates
    translate           % move origin to given point
    rotate		% rotate so that text is drawn
    0 0 moveto
    dup length /stringcount exch def			% Get number of strings
    /strings exch def     				% save strings
    /spacing exch def
    % do we have more than 1 string to render?
    stringcount 1 eq {
	/stringtxt strings aload pop def		% get the string 
	/stringw stringtxt mystringwidth pop neg def	% get the -width
	/stringh stringtxt stringheight exch pop neg def% get the -height

	% First do vertical calculations
	% hcenter rjustify vcenter vjustify 
	% vertical justification
	{ 0 stringh rmoveto } if 
	% vertical center
	{ 0 stringh 0.3571425 mul rmoveto } if  % not 0.5, so that
						% it looks nicer
	% Then do horizontal calculations
	% right justify
	{ stringw 0 rmoveto } if
	% center
	{ stringw 2.0 div 0 rmoveto } if
	% Draw the text
	stringtxt overbarshow
    } {
	% More than one line, compute bounding box for the text

	% vertical height, don't use the actual hieght of the characters
	% assume that the user wants to make the baselines line up with two
	% text boxes placed side by side
	/stringh stringcount spacing mul neg def
	% Now figure out horizontal size, this amounts to keeping track
	% of the longest string
	/stringw 0.0 def
	strings {
	    mystringwidth pop
	    dup stringw gt {
		/stringw exch def
	    } {
		pop
	    } ifelse
	} forall
	/stringw stringw neg def 	% get the -width
	
	% First do vertical calculations
	% hcenter rjustify vcenter vjustify 
	% vertical justification
	{ 0 stringh fontsize add rmoveto } if 
	% vertical center
	{ 0 stringh 0.5 mul rmoveto } if 
	% Then do horizontal calculations
	% right justify
	{ stringw 0 rmoveto } if
	% center
	{ stringw 2.0 div 0 rmoveto } if
	% now move up to the first line and begin rendering
	0 stringcount 1 sub spacing mul rmoveto
	strings {
	    gsave		% Save starting point
	    overbarshow		% render the text
	    grestore
	    0 spacing neg rmoveto
	} forall
    } ifelse
    grestore 	% Restore old state
} bind def


%%EndProlog
%%Page: 1 1
/gEDAFont ISOLatin1Extended /Helvetica RE
2 setlinecap
0.072000 0.072000 scale
0 0 translate
1.000000 1.000000 scale
-12295 -59199 translate
gsave
12400 63700 12600 63700 10 line
gsave
false true false false 161.777776 [(1) ] 0 12550 63750 144.444443 text
grestore
13100 63700 12900 63700 10 line
gsave
false false false false 161.777776 [(2) ] 0 12950 63750 144.444443 text
grestore
12700 63900 12700 63500 10 line
12800 63800 12800 63600 10 line
12900 63700 12800 63700 10 line
12600 63700 12700 63700 10 line
60 60 12370 63670 fbox
60 60 13070 63670 fbox
grestore
gsave
false false false false 202.222224 [(B?) ] 0 12700 64000 180.555557 text
grestore
gsave
14000 66400 14200 66400 10 line
14900 66400 14700 66400 10 line
14400 66600 14400 66200 10 line
14500 66600 14500 66200 10 line
14700 66400 14500 66400 10 line
14400 66400 14200 66400 10 line
60 60 13970 66370 fbox
60 60 14870 66370 fbox
grestore
gsave
false false false false 202.222224 [(C?) ] 0 14200 66700 180.555557 text
grestore
gsave
14100 65300 14300 65300 10 line
gsave
false true false false 161.777776 [(1) ] 0 14250 65350 144.444443 text
grestore
15000 65300 14800 65300 10 line
gsave
false false false false 161.777776 [(2) ] 0 14850 65350 144.444443 text
grestore
14500 65500 14500 65100 10 line
14800 65300 14600 65300 10 line
14500 65300 14300 65300 10 line
15300 65300 700 165 195 10 darc
14389 65500 14389 65400 10 line
14440 65449 14340 65449 10 line
60 60 14070 65270 fbox
60 60 14970 65270 fbox
grestore
gsave
false false false false 202.222224 [(C?) ] 0 14300 65600 180.555557 text
grestore
gsave
14400 64000 14900 63600 10 line
14900 63600 14800 63600 10 line
14900 63600 14900 63700 10 line
14200 63800 14400 63800 10 line
15100 63800 14900 63800 10 line
14600 64000 14600 63600 10 line
14700 64000 14700 63600 10 line
14900 63800 14700 63800 10 line
14600 63800 14400 63800 10 line
60 60 14170 63770 fbox
60 60 15070 63770 fbox
grestore
gsave
false false false false 202.222224 [(C?) ] 0 14400 64100 180.555557 text
grestore
gsave
15900 66400 15700 66400 10 line
16500 66400 16700 66400 10 line
16000 66400 100 0 180 10 darc
16200 66400 100 0 180 10 darc
16400 66400 100 0 180 10 darc
60 60 15670 66370 fbox
60 60 16670 66370 fbox
grestore
gsave
false false false false 202.222224 [(L?) ] 0 15900 66600 180.555557 text
grestore
gsave
14300 62300 14500 62300 10 line
14800 62300 15000 62300 10 line
14550 62200 14750 62200 10 line
14750 62200 14750 62400 10 line
14750 62400 14550 62400 10 line
14550 62400 14550 62200 10 line
14500 62440 14500 62160 10 line
14800 62440 14800 62160 10 line
60 60 14270 62270 fbox
60 60 14970 62270 fbox
grestore
gsave
false false false false 202.222224 [(U?) ] 0 14500 62500 180.555557 text
grestore
gsave
15700 65300 15900 65300 10 line
16400 65300 16600 65300 10 line
16025 65300 125 180 360 10 darc
16275 65300 125 0 180 10 darc
60 60 15670 65270 fbox
60 60 16570 65270 fbox
grestore
gsave
false false false false 202.222224 [(F?) ] 0 15900 65500 180.555557 text
grestore
gsave
12700 59600 12900 59600 10 line
gsave
false true false false 161.777776 [(1) ] 0 12850 59650 144.444443 text
grestore
13600 59600 13400 59600 10 line
gsave
false false false false 161.777776 [(2) ] 0 13450 59650 144.444443 text
grestore
13100 59700 13200 59600 10 line
13200 59600 13100 59500 10 line
13100 59700 13100 59500 10 line
13200 59700 13200 59500 10 line
13200 59600 13400 59600 10 line
13100 59600 12900 59600 10 line
13150 59600 200 0 360 10 darc
13216 59903 13317 60004 10 line
13317 60004 13321 59955 10 line
13321 59955 13422 60057 10 line
13184 59818 13285 59918 10 line
13285 59918 13289 59869 10 line
13289 59869 13390 59970 10 line
60 60 12670 59570 fbox
60 60 13570 59570 fbox
grestore
gsave
false false false false 202.222224 [(LED?) ] 0 13500 59800 180.555557 text
grestore
gsave
17700 66700 17700 66100 10 line
18000 66700 17700 66400 10 line
17700 66400 18000 66100 10 line
10 setlinewidth
17910 66140 moveto 18001 66100 lineto 17955 66195 lineto 17935 66165 lineto closepath stroke
17910 66140 moveto 18001 66100 lineto 17955 66195 lineto 17935 66165 lineto closepath fill
17500 66400 17700 66400 10 line
gsave
false false false false 121.333336 [(B) ] 0 17600 66450 108.333336 text
grestore
18000 66900 18000 66700 10 line
gsave
false false false false 121.333336 [(C) ] 0 17900 66750 108.333336 text
grestore
18000 66100 18000 65900 10 line
gsave
false false false false 121.333336 [(E) ] 0 17900 65950 108.333336 text
grestore
60 60 17470 66370 fbox
60 60 17970 66870 fbox
60 60 17970 65870 fbox
grestore
gsave
false false false false 202.222224 [(Q?) ] 0 18100 66400 180.555557 text
grestore
gsave
17900 59900 17800 59700 10 line
17800 59700 17700 59900 10 line
17700 59900 17600 59700 10 line
17600 59700 17500 59900 10 line
17900 59900 18000 59700 10 line
18000 59700 18050 59800 10 line
18200 59800 18050 59800 10 line
17300 59800 17452 59800 10 line
17501 59900 17450 59800 10 line
17750 59800 300 0 360 10 darc
60 60 18170 59770 fbox
60 60 17270 59770 fbox
grestore
gsave
false false false false 202.222224 [(R?) ] 0 17500 60200 180.555557 text
grestore
gsave
14800 59900 14800 59800 10 line
14800 59600 14800 59500 10 line
14660 59700 14620 59710 10 line
14620 59710 14650 59740 10 line
14650 59740 14660 59700 10 line
14660 59630 14620 59640 10 line
14620 59640 14650 59670 10 line
14650 59670 14660 59630 10 line
14700 59800 14700 59600 10 line
14800 59600 14700 59670 10 line
14700 59730 14800 59800 10 line
14640 59720 14600 59760 10 line
14600 59760 14600 59730 10 line
14600 59730 14560 59770 10 line
14640 59650 14600 59690 10 line
14600 59690 14600 59660 10 line
14600 59660 14560 59700 10 line
14800 59600 14770 59640 10 line
14770 59640 14750 59610 10 line
14750 59610 14800 59600 10 line
60 60 14770 59870 fbox
60 60 14770 59470 fbox
grestore
gsave
false false false false 202.222224 [(Q?) ] 0 14860 59600 180.555557 text
grestore
gsave
16200 59400 16200 59600 10 line
16200 60300 16200 60100 10 line
16100 59800 16200 59900 10 line
16200 59900 16300 59800 10 line
16100 59800 16300 59800 10 line
16100 59900 16300 59900 10 line
16200 59900 16200 60100 10 line
16200 59800 16200 59600 10 line
16200 59850 200 0 360 10 darc
15919 60102 15854 60055 10 line
15782 60226 15795 60142 10 line
15929 60022 15782 60226 10 line
15930 60021 15919 60102 10 line
15854 60055 15930 60021 10 line
15795 60142 15663 60298 10 line
15915 59941 15850 59894 10 line
15778 60065 15791 59981 10 line
15925 59861 15778 60065 10 line
15926 59860 15915 59941 10 line
15850 59894 15926 59860 10 line
15791 59981 15659 60137 10 line
60 60 16170 59370 fbox
60 60 16170 60270 fbox
grestore
gsave
false true false true 202.222224 [(PD?) ] 0 16600 60200 180.555557 text
grestore
gsave
12800 65450 12800 65600 10 line
gsave
false false false false 161.777776 [(2) ] 0 12700 65500 144.444443 text
grestore
12800 65200 12748 65301 10 line
12801 65201 12853 65302 10 line
12900 65200 12800 65000 10 line
12800 65000 12700 65200 10 line
12700 65200 12600 65000 10 line
12600 65000 12500 65200 10 line
12900 65200 13000 65000 10 line
13000 65000 13050 65100 10 line
13200 65100 13050 65100 10 line
gsave
false false false false 161.777776 [(3) ] 0 13100 64950 144.444443 text
grestore
gsave
false false false false 202.222224 [(cw) ] 0 13000 65200 180.555557 text
grestore
12300 65100 12452 65100 10 line
gsave
false false false false 161.777776 [(1) ] 0 12400 64950 144.444443 text
grestore
gsave
false false false false 202.222224 [(ccw) ] 0 12300 65200 180.555557 text
grestore
12501 65200 12450 65100 10 line
12800 65200 12800 65450 10 line
60 60 12770 65570 fbox
60 60 13170 65070 fbox
60 60 12270 65070 fbox
grestore
gsave
false false false false 202.222224 [(R?) ] 0 12900 65400 180.555557 text
grestore
gsave
12700 62800 12700 62000 10 line
12700 62800 13300 62400 10 line
13300 62400 12700 62000 10 line
12800 62250 12800 62150 10 line
12750 62200 12850 62200 10 line
12750 62600 12850 62600 10 line
12500 62200 12700 62200 10 line
gsave
false false false false 202.222224 [(3) ] 0 12500 62200 180.555557 text
grestore
12500 62600 12700 62600 10 line
gsave
false false false false 202.222224 [(2) ] 0 12500 62600 180.555557 text
grestore
13300 62400 13500 62400 10 line
gsave
false false false false 202.222224 [(1) ] 0 13300 62400 180.555557 text
grestore
13000 62600 13000 62800 10 line
gsave
false false false false 202.222224 [(11) ] 0 13100 62600 180.555557 text
grestore
13000 62200 13000 62000 10 line
gsave
false false false false 202.222224 [(4) ] 0 13100 62100 180.555557 text
grestore
60 60 12470 62170 fbox
60 60 12470 62570 fbox
60 60 13470 62370 fbox
60 60 12970 62770 fbox
60 60 12970 61970 fbox
grestore
gsave
false false false false 202.222224 [(U?) ] 0 12700 62900 180.555557 text
grestore
gsave
13000 66400 12900 66200 10 line
12900 66200 12800 66400 10 line
12800 66400 12700 66200 10 line
12700 66200 12600 66400 10 line
13000 66400 13100 66200 10 line
13100 66200 13150 66300 10 line
13300 66300 13150 66300 10 line
12400 66300 12552 66300 10 line
12601 66400 12550 66300 10 line
60 60 13270 66270 fbox
60 60 12370 66270 fbox
grestore
gsave
false false false false 202.222224 [(R?) ] 0 12600 66500 180.555557 text
grestore
gsave
17700 63300 17400 63300 10 line
17700 63200 100 270 450 10 darc
17700 62600 100 270 450 10 darc
17700 62400 100 270 450 10 darc
17700 62300 17400 62300 10 line
18200 62300 18500 62300 10 line
18200 62400 100 90 270 10 darc
18200 62600 100 90 270 10 darc
18200 63200 100 90 270 10 darc
18200 63300 18500 63300 10 line
17900 63400 17900 62200 10 line
18000 63400 18000 62200 10 line
17400 62300 17200 62300 10 line
gsave
false false false false 161.777776 [(2) ] 0 17300 62350 144.444443 text
grestore
17400 63300 17200 63300 10 line
gsave
false false false false 161.777776 [(1) ] 0 17300 63350 144.444443 text
grestore
18700 62300 18500 62300 10 line
gsave
false false false false 161.777776 [(4) ] 0 18600 62350 144.444443 text
grestore
18700 63300 18500 63300 10 line
gsave
false false false false 161.777776 [(3) ] 0 18600 63350 144.444443 text
grestore
17700 63000 100 270 450 10 darc
17700 62800 100 270 450 10 darc
18200 63000 100 90 270 10 darc
18200 62800 100 90 270 10 darc
60 60 17170 62270 fbox
60 60 17170 63270 fbox
60 60 18670 62270 fbox
60 60 18670 63270 fbox
grestore
gsave
false false false false 202.222224 [(T?) ] 0 17500 63500 180.555557 text
grestore
gsave
14400 61000 14100 61000 10 line
gsave
false false false false 202.222224 [(1) ] 0 14250 61050 180.555557 text
grestore
14700 61200 15000 61200 10 line
gsave
false false false false 202.222224 [(2) ] 0 14850 61250 180.555557 text
grestore
14700 60800 15000 60800 10 line
gsave
false false false false 202.222224 [(3) ] 0 14850 60850 180.555557 text
grestore
14400 61000 14700 61000 10 line
60 60 14070 60970 fbox
60 60 14970 61170 fbox
60 60 14970 60770 fbox
grestore
gsave
false false false false 202.222224 [(S?) ] 0 14500 61400 180.555557 text
grestore
gsave
12800 61200 13000 61000 10 line
13000 61000 13300 61000 10 line
gsave
false false false false 161.777776 [(2) ] 0 13150 61050 144.444443 text
grestore
12800 61000 12500 61000 10 line
gsave
false false false false 161.777776 [(1) ] 0 12600 61050 144.444443 text
grestore
60 60 13270 60970 fbox
60 60 12470 60970 fbox
grestore
gsave
false false false false 202.222224 [(S?) ] 0 12800 61300 180.555557 text
grestore
gsave
15700 61100 15850 61100 10 line
gsave
false false false false 161.777776 [(1) ] 0 15750 61150 144.444443 text
grestore
16550 61100 16700 61100 10 line
gsave
false false false false 161.777776 [(2) ] 0 16600 61150 144.444443 text
grestore
15850 61100 16025 61100 10 line
16550 61100 16375 61100 10 line
16000 61185 16400 61185 10 line
16039 61100 14 0 360 10 darc
16362 61100 14 0 360 10 darc
16170 61355 16220 61355 10 line
16170 61305 16220 61305 10 line
16170 61305 16195 61255 10 line
16220 61305 16195 61255 10 line
16195 61305 16195 61355 10 line
16195 61255 16195 61186 10 line
60 60 15670 61070 fbox
60 60 16670 61070 fbox
grestore
gsave
false false false false 202.222224 [(S?) ] 0 16100 61400 180.555557 text
grestore
gsave
false false false false 242.666672 [(Resistor) ] 0 12400 66000 216.666672 text
grestore
gsave
false false false false 242.666672 [(Variable) (Resistor) ] 0 12400 64500 216.666672 text
grestore
gsave
false false false false 242.666672 [(Battery) ] 0 12400 63300 216.666672 text
grestore
gsave
false false false false 242.666672 [(Capacitor) ] 0 14000 66000 216.666672 text
grestore
gsave
false false false false 242.666672 [(Polarized) (Capacitor) ] 0 14100 64600 216.666672 text
grestore
gsave
false false false false 242.666672 [(Variable) (Capacitor) ] 0 14300 63100 216.666672 text
grestore
gsave
false false false false 242.666672 [(Crystal) ] 0 14300 62000 216.666672 text
grestore
gsave
false false false false 242.666672 [(Op Amp) ] 0 12500 61800 216.666672 text
grestore
gsave
false false false false 242.666672 [(Inductor) ] 0 15800 66200 216.666672 text
grestore
gsave
false false false false 242.666672 [(Fuse) ] 0 15900 64900 216.666672 text
grestore
gsave
17700 65000 17700 64400 10 line
18000 65000 17700 64700 10 line
17700 64700 18000 64400 10 line
17500 64700 17700 64700 10 line
gsave
false false false false 121.333336 [(B) ] 0 17600 64750 108.333336 text
grestore
18000 65200 18000 65000 10 line
gsave
false false false false 121.333336 [(C) ] 0 17900 65050 108.333336 text
grestore
18000 64400 18000 64200 10 line
gsave
false false false false 121.333336 [(E) ] 0 17900 64250 108.333336 text
grestore
10 setlinewidth
17840 64490 moveto 17800 64601 lineto 17895 64555 lineto 17865 64535 lineto closepath stroke
17840 64490 moveto 17800 64601 lineto 17895 64555 lineto 17865 64535 lineto closepath fill
60 60 17470 64670 fbox
60 60 17970 65170 fbox
60 60 17970 64170 fbox
grestore
gsave
false false false false 202.222224 [(Q?) ] 0 18100 64700 180.555557 text
grestore
gsave
false false false false 242.666672 [(NPN) (Transistor) ] 0 17500 65500 216.666672 text
grestore
gsave
false false false false 242.666672 [(PNP) (Transistor) ] 0 17600 63700 216.666672 text
grestore
gsave
false false false false 242.666672 [(Transformer) ] 0 17400 62000 216.666672 text
grestore
gsave
false false false false 242.666672 [(SPST) (Switch) ] 0 12600 60500 216.666672 text
grestore
gsave
false false false false 242.666672 [(SPDT) (Switch) ] 0 14300 60300 216.666672 text
grestore
gsave
false false false false 242.666672 [(Pushbutton) (Switch) ] 0 15800 60600 216.666672 text
grestore
gsave
16100 64500 16100 64100 10 line
16000 64500 16000 64100 10 line
16100 64500 16300 64500 10 line
16100 64100 16300 64100 10 line
16100 64300 16300 64300 10 line
16100 64300 16200 64400 10 line
16100 64300 16200 64200 10 line
15800 64300 16000 64300 10 line
16300 64500 16300 64700 10 line
16300 64300 16500 64300 10 line
16300 64100 16300 63900 10 line
60 60 15770 64270 fbox
60 60 16270 64670 fbox
60 60 16470 64270 fbox
60 60 16270 63870 fbox
grestore
gsave
false false false false 202.222224 [(Q?) ] 0 16500 64500 180.555557 text
grestore
gsave
false false false false 242.666672 [(NMOS) (FET) ] 0 15900 63400 216.666672 text
grestore
gsave
16000 62900 16000 62500 10 line
15900 62900 15900 62500 10 line
16000 62900 16200 62900 10 line
16000 62500 16200 62500 10 line
16000 62700 16200 62700 10 line
16200 62700 16100 62600 10 line
16200 62700 16100 62800 10 line
16200 62900 16200 63100 10 line
16200 62700 16400 62700 10 line
16200 62500 16200 62300 10 line
15900 62700 15700 62700 10 line
60 60 16170 63070 fbox
60 60 16370 62670 fbox
60 60 16170 62270 fbox
60 60 15670 62670 fbox
grestore
gsave
false false false false 202.222224 [(Q?) ] 0 16400 62900 180.555557 text
grestore
gsave
false false false false 242.666672 [(PMOS) (FET) ] 0 15900 61800 216.666672 text
grestore
gsave
false false false false 242.666672 [(LED) ] 0 12900 59200 216.666672 text
grestore
gsave
false false false false 242.666672 [(Phototransistor) ] 0 14000 59200 216.666672 text
grestore
gsave
false false false false 242.666672 [(Photodiode) ] 0 15700 59200 216.666672 text
grestore
gsave
false false false false 242.666672 [(Photoresistor) ] 0 17100 59200 216.666672 text
grestore
gsave
17800 61400 17800 61000 10 line
17800 61400 18100 61200 10 line
18100 61200 17800 61000 10 line
18100 61400 18100 61000 10 line
17500 61200 17700 61200 10 line
18400 61200 18200 61200 10 line
18200 61200 18100 61200 10 line
17800 61200 17700 61200 10 line
60 60 17470 61170 fbox
60 60 18370 61170 fbox
grestore
gsave
false false false false 202.222224 [(D?) ] 0 17800 61500 180.555557 text
grestore
gsave
false false false false 242.666672 [(Diode) ] 0 17700 60800 216.666672 text
grestore
60 60 12370 63670 fbox
60 60 13070 63670 fbox
60 60 13970 66370 fbox
60 60 14870 66370 fbox
60 60 14070 65270 fbox
60 60 14970 65270 fbox
60 60 14170 63770 fbox
60 60 15070 63770 fbox
60 60 15670 66370 fbox
60 60 16670 66370 fbox
60 60 14270 62270 fbox
60 60 14970 62270 fbox
60 60 15670 65270 fbox
60 60 16570 65270 fbox
60 60 12670 59570 fbox
60 60 13570 59570 fbox
60 60 17470 66370 fbox
60 60 17970 66870 fbox
60 60 17970 65870 fbox
60 60 18170 59770 fbox
60 60 17270 59770 fbox
60 60 14770 59870 fbox
60 60 14770 59470 fbox
60 60 16170 59370 fbox
60 60 16170 60270 fbox
60 60 12770 65570 fbox
60 60 13170 65070 fbox
60 60 12270 65070 fbox
60 60 12470 62170 fbox
60 60 12470 62570 fbox
60 60 13470 62370 fbox
60 60 12970 62770 fbox
60 60 12970 61970 fbox
60 60 13270 66270 fbox
60 60 12370 66270 fbox
60 60 17170 62270 fbox
60 60 17170 63270 fbox
60 60 18670 62270 fbox
60 60 18670 63270 fbox
60 60 14070 60970 fbox
60 60 14970 61170 fbox
60 60 14970 60770 fbox
60 60 13270 60970 fbox
60 60 12470 60970 fbox
60 60 15670 61070 fbox
60 60 16670 61070 fbox
60 60 17470 64670 fbox
60 60 17970 65170 fbox
60 60 17970 64170 fbox
60 60 15770 64270 fbox
60 60 16270 64670 fbox
60 60 16470 64270 fbox
60 60 16270 63870 fbox
60 60 16170 63070 fbox
60 60 16370 62670 fbox
60 60 16170 62270 fbox
60 60 15670 62670 fbox
60 60 17470 61170 fbox
60 60 18370 61170 fbox
showpage
%%End
