v 20130925 2
C 12400 63500 1 0 0 battery-1.sym
{
T 12700 64400 5 10 0 0 0 0 1
device=BATTERY
T 12700 64000 5 10 1 1 0 0 1
refdes=B?
T 12700 64800 5 10 0 0 0 0 1
symversion=0.1
}
C 14000 66200 1 0 0 capacitor-1.sym
{
T 14200 66900 5 10 0 0 0 0 1
device=CAPACITOR
T 14200 66700 5 10 1 1 0 0 1
refdes=C?
T 14200 67100 5 10 0 0 0 0 1
symversion=0.1
}
C 14100 65100 1 0 0 capacitor-2.sym
{
T 14300 65800 5 10 0 0 0 0 1
device=POLARIZED_CAPACITOR
T 14300 65600 5 10 1 1 0 0 1
refdes=C?
T 14300 66000 5 10 0 0 0 0 1
symversion=0.1
}
C 14200 63600 1 0 0 capacitor-variable-1.sym
{
T 14400 64300 5 10 0 0 0 0 1
device=VARIABLE_CAPACITOR
T 14400 64100 5 10 1 1 0 0 1
refdes=C?
T 14400 64500 5 10 0 0 0 0 1
symversion=0.1
}
C 15700 66400 1 0 0 coil-1.sym
{
T 15900 66800 5 10 0 0 0 0 1
device=COIL
T 15900 66600 5 10 1 1 0 0 1
refdes=L?
T 15900 67000 5 10 0 0 0 0 1
symversion=0.1
}
C 14300 62200 1 0 0 crystal-1.sym
{
T 14500 62700 5 10 0 0 0 0 1
device=CRYSTAL
T 14500 62500 5 10 1 1 0 0 1
refdes=U?
T 14500 62900 5 10 0 0 0 0 1
symversion=0.1
}
C 15700 65300 1 0 0 fuse-1.sym
{
T 15900 65700 5 10 0 0 0 0 1
device=FUSE
T 15900 65500 5 10 1 1 0 0 1
refdes=F?
T 15900 65900 5 10 0 0 0 0 1
symversion=0.1
}
C 12700 59400 1 0 0 led-1.sym
{
T 13500 60000 5 10 0 0 0 0 1
device=LED
T 13500 59800 5 10 1 1 0 0 1
refdes=LED?
T 13500 60200 5 10 0 0 0 0 1
symversion=0.1
}
C 17500 65900 1 0 0 npn-1.sym
{
T 18100 66400 5 10 0 0 0 0 1
device=NPN_TRANSISTOR
T 18100 66400 5 10 1 1 0 0 1
refdes=Q?
}
C 17300 59500 1 0 0 photo-resistor-1.sym
{
T 18000 60200 5 10 0 0 0 0 1
device=PHOTORESISTOR
T 17500 60200 5 10 1 1 0 0 1
refdes=R?
}
C 14600 59500 1 0 0 photo-transistor-1.sym
{
T 14400 60000 5 6 0 1 0 0 1
device=PS2501-1
T 14860 59600 5 10 1 1 0 0 1
refdes=Q?
T 14560 59500 5 10 0 1 0 0 1
device=photo-transistor
}
C 15700 59400 1 0 0 photodiode-1.sym
{
T 16200 60500 5 10 0 0 0 0 1
device=photodiode
T 16600 60200 5 10 1 1 180 0 1
refdes=PD?
}
C 12300 65000 1 0 0 pot-1.sym
{
T 13100 65900 5 10 0 0 0 0 1
device=VARIABLE_RESISTOR
T 12900 65400 5 10 1 1 0 0 1
refdes=R?
T 13100 66500 5 10 0 0 0 0 1
footprint=none
}
C 12500 62000 1 0 0 quad_opamp-1.sym
{
T 13100 62600 5 10 0 0 0 0 1
device=QUAD_OPAMP
T 12700 62900 5 10 1 1 0 0 1
refdes=U?
T 14900 64300 5 10 0 0 0 0 1
footprint=SO14
T 12700 64500 5 10 0 0 0 0 1
symversion=0.1
}
C 12400 66200 1 0 0 resistor-1.sym
{
T 12700 66600 5 10 0 0 0 0 1
device=RESISTOR
T 12600 66500 5 10 1 1 0 0 1
refdes=R?
}
C 17200 62200 1 0 0 transformer-1.sym
{
T 17500 63500 5 10 1 1 0 0 1
refdes=T?
T 17500 63500 5 10 0 0 0 0 1
device=transformer
}
C 14100 60800 1 0 0 switch-spdt-1.sym
{
T 14500 61600 5 10 0 0 0 0 1
device=SPDT
T 14500 61400 5 10 1 1 0 0 1
refdes=S?
}
C 12500 61000 1 0 0 switch-spst-1.sym
{
T 12900 61700 5 10 0 0 0 0 1
device=SPST
T 12800 61300 5 10 1 1 0 0 1
refdes=S?
}
C 15700 61100 1 0 0 switch-pushbutton-no-1.sym
{
T 16100 61400 5 10 1 1 0 0 1
refdes=S?
T 16100 61700 5 10 0 0 0 0 1
device=SWITCH_PUSHBUTTON_NO
}
T 12400 66000 9 12 1 0 0 0 1
Resistor
T 12400 64500 9 12 1 0 0 0 2
Variable
Resistor
T 12400 63300 9 12 1 0 0 0 1
Battery
T 14000 66000 9 12 1 0 0 0 1
Capacitor
T 14100 64600 9 12 1 0 0 0 2
Polarized
Capacitor
T 14300 63100 9 12 1 0 0 0 2
Variable
Capacitor
T 14300 62000 9 12 1 0 0 0 1
Crystal
T 12500 61800 9 12 1 0 0 0 1
Op Amp
T 15800 66200 9 12 1 0 0 0 1
Inductor
T 15900 64900 9 12 1 0 0 0 1
Fuse
C 17500 64200 1 0 0 pnp-1.sym
{
T 18100 64700 5 10 0 0 0 0 1
device=PNP_TRANSISTOR
T 18100 64700 5 10 1 1 0 0 1
refdes=Q?
}
T 17500 65500 9 12 1 0 0 0 2
NPN
Transistor
T 17600 63700 9 12 1 0 0 0 2
PNP
Transistor
T 17400 62000 9 12 1 0 0 0 1
Transformer
T 12600 60500 9 12 1 0 0 0 2
SPST
Switch
T 14300 60300 9 12 1 0 0 0 2
SPDT
Switch
T 15800 60600 9 12 1 0 0 0 2
Pushbutton
Switch
C 15800 63900 1 0 0 nmos-1.sym
{
T 16500 64700 5 10 0 0 0 0 1
device=NMOS_TRANSISTOR
T 16500 64500 5 10 1 1 0 0 1
refdes=Q?
T 16500 64900 5 10 0 0 0 0 1
symversion=0.1
}
T 15900 63400 9 12 1 0 0 0 2
NMOS
FET
C 15700 62300 1 0 0 pmos-1.sym
{
T 16300 62500 5 10 0 0 0 0 1
device=PMOS_TRANSISTOR
T 16400 62900 5 10 1 1 0 0 1
refdes=Q?
}
T 15900 61800 9 12 1 0 0 0 2
PMOS
FET
T 12900 59200 9 12 1 0 0 0 1
LED
T 14000 59200 9 12 1 0 0 0 1
Phototransistor
T 15700 59200 9 12 1 0 0 0 1
Photodiode
T 17100 59200 9 12 1 0 0 0 1
Photoresistor
C 17500 61000 1 0 0 diode-1.sym
{
T 17900 61600 5 10 0 0 0 0 1
device=DIODE
T 17800 61500 5 10 1 1 0 0 1
refdes=D?
}
T 17700 60800 9 12 1 0 0 0 1
Diode
